211282
35 57 14
17 53 50000
17 53 50000
17 53 50000
17 53 50000
17 53 50000
17 53 50000
17 53 50000
17 53 50000
17 53 50000
17 53 50000
17 53 50000
17 53 50000
17 53 50000
17 53 50000
17 53 50000

