211282
29 58 14
17 57 50000
17 57 50000
17 57 50000
17 57 50000
17 57 50000
17 57 50000
17 57 50000
17 57 50000
17 57 50000
17 57 50000
17 57 50000
17 57 50000
17 57 50000
17 57 50000
17 57 50000
