211282
24 59 14
17 57 50000
17 57 50000
17 57 50000
17 57 50000
17 57 50000
17 57 50000
17 57 50000
17 57 50000
17 57 50000
17 57 50000
17 57 50000
17 57 50000
17 57 50000
17 57 50000
17 57 50000
